[
  {
    "es": [
      {
        "number": 100,
        "text": "Personalizable",
        "suffix": "%"
      },
      {
        "number": 10,
        "text": "Años de experiencia",
        "prefix": "+"
      },
      {
        "number": 3,
        "text": "Ilusionistas"
      },
      {
        "number": 100,
        "text": "Actuaciones al año",
        "prefix": "+"
      }
    ],
    "gl": [
      {
        "number": 100,
        "text": "Personalizable",
        "suffix": "%"
      },
      {
        "number": 10,
        "text": "Anos de experiencia",
        "prefix": "+"
      },
      {
        "number": 3,
        "text": "Ilusionistas"
      },
      {
        "number": 100,
        "text": "Actuacións por ano",
        "prefix": "+"
      }
    ]
  }
]
