[
  {
    "id": 1,
    "slug": "/blog/pont-up-store-2019",
    "title": "Pont-Up Store 2019",
    "metaDescription": "Una crónica de nuestro paso por el Pont-Up Store 2019, la feria de emprendimiento de Pontevedra.",
    "lang": "es",
    "synopsis": "¡Bienvenidos a nuestro blog! Vamos a inaugurar esta aventura bloguera con una breve pero importante historia en el nacimiento de Magia en la Manga. Se trata de nuestra participación en el Pont-Up Store 2019, la feria de emprendimiento que se…",
    "date": "2021-09-20",
    "category": "Eventos",
    "mainImage": {
      "img": "../images/pont-up-04.jpg",
      "alt": "Stand de Magia en la Manga en la feria Pont-Up Store 2019 (Pontevedra, Galicia)."
    },
    "content": [
      { "id": 1, "subtitle": "¡Bienvenidos a nuestro blog!" },
      {
        "id": 2,
        "paragraph": "Vamos a inaugurar esta aventura bloguera con una breve pero importante historia en el nacimiento de <i>Magia en la Manga</i>. Se trata de nuestra participación en el <a href='https://pontupstore.com/'>Pont-Up Store</a> 2019, la feria de emprendimiento que se celebra en la ciudad de Pontevedra desde el año 2014, en donde conseguimos dar todo un empujón a la trayectoria de nuestra compañía. Ya que la edición de este año está al caer, nos ha dado toda la nostalgia y queremos contaros nuestra experiencia."
      },
      {
        "id": 3,
        "paragraph": "Para quien no conozca este evento, <a href='https://pontupstore.com/'>Pont-Up Store</a> es “O impulso da xente valente”, un espacio de emprendimiento en el que se busca dar visibilidad a nuevos proyectos diferentes e interesantes. Tuvimos la suerte de ser seleccionados en la edición de 2019, y allá que fuimos Sara y Carlos cargados de material que mostrar y de ganas de darnos a conocer."
      },
      {
        "id": 4,
        "image": {
          "img": "../images/pont-up-01.jpg",
          "alt": "Sara Rodríguez y Carlos Tomico en el stand durante la feria de emprendimiento Pont-Up Store 2019 en Pontevedra (Galicia)."
        }
      },
      {
        "id": 5,
        "paragraph": "Nuestra participación consistió en un stand en el espacio de emprendimiento en la Praza de España, en el centro mismo de Pontevedra. En ese momento estábamos prácticamente de estreno de nuestra identidad corporativa, y quisimos decorar el stand en consonancia incorporando objetos de magia clásicos pero con un giro más moderno (nuestras disculpas a la emprendedora del stand de detrás, Oytto, a quien le dimos la mañana martillando puntas en la pared; confiamos en que el resultado valiese la pena)."
      },
      {
        "id": 6,
        "image": {
          "img": "../images/pont-up-03.jpg",
          "alt": "Stand de Magia en la Manga en la feria Pont-Up Store 2019 (Pontevedra, Galicia)."
        }
      },
      {
        "id": 7,
        "paragraph": "También formamos parte de la programación de actividades de la feria con un espectáculo de magia para todos los públicos de la mano de Sara y de Carlos. Según la organización fue de las actividades con mayor afluencia de público de todas las ediciones de la feria, algo totalmente inesperado para nosotros y por lo que estamos muy agradecidos. ¡Lo pasamos en grande!"
      },
      {
        "id": 8,
        "paragraph": "Sin lugar a dudas, una de las mayores recompensas de haber participado fue la oportunidad de conocer tanto a otros emprendedores y profesionales de todos los sectores como posibles clientes y personas interesadas en la magia y en lo que ofrecemos. Siempre es un placer aprender de otras personas que comparten las mismas ambiciones, sean del sector que sean."
      },
      {
        "id": 9,
        "image": {
          "img": "../images/pont-up-02.jpg",
          "alt": "Público participando en una demostración de magia en el stand de Magia en la Manga durante la feria Pont-Up Store 2019 (Pontevedra, Galicia)."
        }
      },
      {
        "id": 10,
        "paragraph": "Como colofón final para un fin de semana tan gratificante, tuvimos la suerte y el honor de recibir el premio a “Mellor Emprendemento na categoría de Formación, Educación, Arte e Cultura”. Esperamos estar a la altura de este reconocimiento, y queremos dar un agradecimiento especial a la organización de Pont-Up Store, en especial a Pedro Figueroa, por acompañarnos y darnos un empujón al haber confiado en nuestro proyecto."
      },
      {
        "id": 11,
        "paragraph": "Para quienes estéis en estos momentos preparando vuestra inminente participación en la edición de 2021, pensando en presentaros en alguna de las ediciones venideras o tenéis un proyecto en mente y buscáis un espacio donde mostrarlo, esperamos que encontréis en Pont-Up Store el mismo impulso y la misma motivación para darlo todo con vuestro emprendimiento."
      }
    ]
  },
  {
    "id": 2,
    "slug": "/blog/que-es-la-magia-educativa-colegios-institutos",
    "title": "¿Qué es la magia educativa?",
    "metaDescription": "¿Quieres saber qué es la magia educativa? Aquí encontrarás cómo creamos nuestros espectáculos de magia para colegios e institutos.",
    "lang": "es",
    "synopsis": "La magia puede ser también mucho más que diversión y misterio. En los últimos años han aparecido numerosas aplicaciones innovadoras de la magia, entre ellas la magia educativa. Si querías motivos para llevar magia a los alumnos de tu colegio o instituto, ¡sigue leyendo!",
    "date": "2021-10-18",
    "category": "Magia educativa",
    "mainImage": {
      "img": "../images/magia-educativa-01.jpg",
      "alt": "Imagen de portada de la entrada del blog sobre magia educativa."
    },
    "content": [
      {
        "id": 1,
        "subtitle": "La magia puede ser también mucho más que diversión y misterio. Si querías motivos para llevar magia a los alumnos de tu colegio o instituto, ¡sigue leyendo!"
      },
      {
        "id": 2,
        "paragraph": "La magia ha sido desde siempre una forma de entretenimiento muy popular entre jóvenes y mayores a lo largo y ancho del planeta. El misterio, el imposible, la sorpresa… son emociones que la magia consigue evocar y que hoy en día son difíciles de encontrar en la vida cotidiana. Pero en los últimos años han aparecido numerosas aplicaciones innovadoras de la magia, entre ellas la magia educativa."
      },
      {
        "id": 3,
        "paragraph": "La magia educativa mantiene las características que hacen de la magia un arte favorito para todos los públicos (es divertida, participativa y sorprendente), pero además introduce contenidos, valores y competencias de utilidad para alumnas y alumnos de todas las edades. La magia en el colegio o en el instituto puede ser el complemento ideal para educar de forma amena, dinámica y sobre todo, mágica. Ya sea un espectáculo tematizado, un espectáculo de magia en inglés, un taller de magia y reciclaje, magia y matemáticas, dinamización lectora… la magia puede ofrecer todo ello y mucho más."
      },
      {
        "id": 4,
        "image": {
          "img": "../images/magia-educativa-03.jpg",
          "alt": "Mago realizando un número de magia en inglés en un colegio de Bormoio (A Coruña, Galicia)."
        }
      },
      {
        "id": 5,
        "paragraph": "En los espectáculos, el público se divierte y participa activamente a la vez que absorbe contenidos educativos sin darse ni cuenta, como si fueran las verduras en la empanada. Además, la magia es tan versátil que permite comunicar un enorme abanico de mensajes de una manera que el público puede ver con sus propios ojos y que quedará en su memoria aún mejor que las tablas de multiplicar."
      },
      {
        "id": 6,
        "paragraph": "En los talleres de magia, los participantes aprenden sencillos pero increíbles juegos de magia adaptados a su edad y capacidades. Son muchas las competencias que hacen falta para realizar incluso el juego de magia más fácil: desde la psicomotricidad y memoria muscular hasta el uso de la voz y la expresión oral, pasando por la creatividad, el pensamiento lógico y la confianza en uno mismo. Y por si fuera poco, los talleres de magia también se pueden tematizar para que funcionen como vehículo de contenidos importantes. ¿Quién iba a decir que las matemáticas o el inglés pudieran servir para sorprender a mis amigos y familiares y molar más que nadie?"
      },
      {
        "id": 7,
        "image": {
          "img": "../images/magia-educativa-02.jpg",
          "alt": "Mago impartiendo un taller de magia y matemáticas online desde Vigo (Galicia)."
        }
      },
      {
        "id": 8,
        "paragraph": "En conclusión, la magia puede ser una herramienta de aprendizaje única y con múltiples beneficios, así que no hay excusas para no apostar por esta nueva vertiente del ilusionismo. Consulta nuestro <a href='/magia-educativa/'>catálogo</a> si quieres ver nuestra oferta de magia educativa para colegios e institutos de Galicia. ¡Aprender también puede ser algo mágico!"
      }
    ]
  },
  {
    "id": 3,
    "slug": "/blog/navidad-magica-en-oporto",
    "title": "Navidad mágica en Oporto",
    "metaDescription": "¡Nuestra aventura haciendo magia tematizada en Navidad sobre uno de los magos más conocidos del mundo!",
    "lang": "es",
    "synopsis": "Para despedir el año 2021, vamos a recordar una de nuestras aventuras navideñas de antes de la pandemia y que fue una de las primeras ocasiones que tuvimos de mostrar que adaptamos nuestros servicios de magia a cualquier tipo de evento. En este caso, damas y caballeros, fuimos hasta la Universidade do Porto con magia ambientada en el universo Harry Potter.",
    "date": "2022-01-20",
    "category": "Eventos",
    "mainImage": {
      "img": "../images/harry-potter-01.jpg",
      "alt": "Mago Carlos Tomico recibe ramo de flores por su participación en el concierto de Navidad de la Faculdade de Engenharia da Universidade do Porto."
    },
    "content": [
      { "id": 1, "subtitle": "¡Feliz 2022!" },
      {
        "id": 2,
        "paragraph": "Esperamos que hayáis tenido unas felices fiestas y que hayáis empezado el nuevo año con buen pie. Por nuestra parte, nos encontramos planificando todo lo que se avecina en 2022 y confiando en que la situación sanitaria vaya poco a poco mejorando."
      },
      {
        "id": 3,
        "paragraph": "Mientras tanto, para despedir la Navidad (aunque en Vigo sigamos con las luces hasta marzo), vamos a recordar una de nuestras aventuras navideñas de antes de la pandemia y que fue una de las primeras ocasiones que tuvimos de mostrar que adaptamos nuestros servicios de magia a cualquier tipo de evento. En este caso, damas y caballeros, fuimos hasta la Universidade do Porto con magia ambientada en el universo Harry Potter."
      },
      {
        "id": 4,
        "image": {
          "img": "../images/harry-potter-02.jpg",
          "alt": "Orquesta Joven de la Universidade do Porto en el concerto de Navidad con temática de Harry Potter."
        }
      },
      {
        "id": 5,
        "paragraph": "Así es, nos contactaron para un evento en la Faculdade de Engenharia, un concierto de Navidad junto con una excelente banda joven de música clásica que tocaría piezas de la banda sonora de la serie cinematográfica. Podéis ver unas fotos increíbles de todo el evento <a href='https://paginas.fe.up.pt/~natal/2019/paginas.fe.up.pt/_natal/2019/fotografias/index.html'>aquí</a>."
      },
      {
        "id": 6,
        "paragraph": "Nosotros aportaríamos el toque de magia que no podía faltar en un evento así, y nos pusimos manos a la obra para adaptar la magia a la Navidad y al universo de uno de los magos favoritos de todos los públicos."
      },
      {
        "id": 7,
        "columns": {
          "paragraphs": [
            "Como siempre, quisimos hacerlo de forma original y profesional, con números de magia y una escenografía que preparamos especialmente para la ocasión. De paso, aprovechamos también para vestir a Carlos al más puro estilo Newt Scamander (y tenemos que decir que no se quejó nada).",
            "La música a cargo de la joven banda fue una auténtica maravilla, y los asistentes pudieron disfrutar de auténticos clásicos modernos de la banda sonora de las películas de Harry Potter en una sala decorada como si del mismo Gran Comedor de Hogwarts se tratase."
          ],
          "image": {
            "img": "../images/harry-potter-03.jpg",
            "alt": "Número de magia con temática de Harry Potter en el concierto de Navidad de la Faculdade de Engenharia da Universidade do Porto."
          }
        }
      },
      {
        "id": 8,
        "paragraph": "Estamos muy agradecidos a la FEUP por haber contado con nosotros, fue una oportunidad de oro para hacer lo que más nos gusta en una ocasión diferente a cualquiera que hubiésemos hecho hasta la fecha. Esperamos poder volver alguna vez, y que se puedan volver a realizar eventos tan bonitos como este sin restricciones y de forma segura para todos."
      },
      { "id": 9, "paragraph": "Y una vez más, ¡feliz año nuevo!" },
      {
        "id": 10,
        "image": {
          "img": "../images/harry-potter-04.jpg",
          "alt": "Aparición final de nieve en el concierto navideño con temática de Harry Potter en la Faculdade de Engenharia da Universidade do Porto."
        }
      }
    ]
  }
]
